%YAML 1.1
%TAG !u! tag:unity3d.com,2011:
--- !u!114 &11400000
MonoBehaviour:
  m_ObjectHideFlags: 0
  m_CorrespondingSourceObject: {fileID: 0}
  m_PrefabInstance: {fileID: 0}
  m_PrefabAsset: {fileID: 0}
  m_GameObject: {fileID: 0}
  m_Enabled: 1
  m_EditorHideFlags: 0
  m_Script: {fileID: 11500000, guid: 9690ddff8fe5bd24e8d6a31a76b506f8, type: 3}
  m_Name: My Graveyard Zone
  m_EditorClassIdentifier: 
  card: {fileID: 11400000, guid: e053a37ad6a7b934fbe92605f0f539e5, type: 2}
  trapCard: {fileID: 11400000, guid: b2a697518e71c15428bd2ccfe574962d, type: 2}
  spellCard: {fileID: 11400000, guid: fa283809d165c7d46b9705333e644fe3, type: 2}
  monsterCard: {fileID: 11400000, guid: e6d403dcd8879e14cb8025337c368b9e, type: 2}
  areaGrid: {fileID: 11400000, guid: 427d1b594332b5c4f8f0ff58474455d8, type: 2}
  MyGraveyardLogic: {fileID: 11400000, guid: a5fd48e32074b2a4ab4fc4c0441c98fd, type: 2}
