%YAML 1.1
%TAG !u! tag:unity3d.com,2011:
--- !u!114 &11400000
MonoBehaviour:
  m_ObjectHideFlags: 0
  m_CorrespondingSourceObject: {fileID: 0}
  m_PrefabInstance: {fileID: 0}
  m_PrefabAsset: {fileID: 0}
  m_GameObject: {fileID: 0}
  m_Enabled: 1
  m_EditorHideFlags: 0
  m_Script: {fileID: 11500000, guid: 6c67022cf29f4564eb2ef10467afd90f, type: 3}
  m_Name: Local Player
  m_EditorClassIdentifier: 
  username: First
  Portrait: {fileID: 21300000, guid: c3b3e9c862a62b5438c63d6e1e955c46, type: 3}
  playerColor: {r: 0.7211205, g: 1, b: 0.15566039, a: 1}
  statsUI: {fileID: 0}
  startingDeck:
  - Blue-Eyes White Dragon
  - Dark Hole
  - Waboku
  - Double Spell
  - Blue-Eyes White Dragon
  - Wattaildragon
  isHumanPlayer: 1
  handLogic: {fileID: 11400000, guid: b281f90ae022ba64da3ea3197c8286b7, type: 2}
  MonsterLogic: {fileID: 11400000, guid: a218c95d8c73c0b4798fc6e8112bd76d, type: 2}
  SYTLogic: {fileID: 11400000, guid: db1cb62b51f5a46428327434f2d67e87, type: 2}
